WARNING:TakeASip:using an INVITE scan on an endpoint (i.e. SIP phone) may cause it to ring and wake up people in the middle of the night
ERROR:TakeASip:SIP server replied with an authentication request for an unknown extension. Set --force to force a scan.
WARNING:root:found nothing
