+------------+----------------+
| Extension  | Authentication |
+============+================+
| 1025161323 | reqauth        |
+------------+----------------+
| 543034160  | reqauth        |
+------------+----------------+
